<?xml version="1.0" encoding="UTF-8" standalone="no"?>
<!-- Created with Inkscape (http://www.inkscape.org/) -->

<svg
   version="1.1"
   id="svg1"
   width="248"
   height="248"
   viewBox="0 0 248 248.00001"
   sodipodi:docname="icon.svg"
   inkscape:version="1.3.2 (091e20ef0f, 2023-11-25, custom)"
   xmlns:inkscape="http://www.inkscape.org/namespaces/inkscape"
   xmlns:sodipodi="http://sodipodi.sourceforge.net/DTD/sodipodi-0.dtd"
   xmlns:xlink="http://www.w3.org/1999/xlink"
   xmlns="http://www.w3.org/2000/svg"
   xmlns:svg="http://www.w3.org/2000/svg">
  <defs
     id="defs1">
    <linearGradient
       id="linearGradient45"
       inkscape:collect="always">
      <stop
         style="stop-color:#ffccee;stop-opacity:1;"
         offset="0"
         id="stop43" />
      <stop
         style="stop-color:#cc4499;stop-opacity:1;"
         offset="0.49863833"
         id="stop44" />
      <stop
         style="stop-color:#992266;stop-opacity:1;"
         offset="1"
         id="stop45" />
    </linearGradient>
    <linearGradient
       id="linearGradient25"
       inkscape:collect="always">
      <stop
         style="stop-color:#ffccee;stop-opacity:1;"
         offset="0"
         id="stop23" />
      <stop
         style="stop-color:#cc4499;stop-opacity:1;"
         offset="0.49863833"
         id="stop24" />
      <stop
         style="stop-color:#992266;stop-opacity:1;"
         offset="1"
         id="stop25" />
    </linearGradient>
    <linearGradient
       id="linearGradient20"
       inkscape:collect="always">
      <stop
         style="stop-color:#ffccee;stop-opacity:1;"
         offset="0"
         id="stop20" />
      <stop
         style="stop-color:#cc4499;stop-opacity:1;"
         offset="0.49863833"
         id="stop22" />
      <stop
         style="stop-color:#992266;stop-opacity:1;"
         offset="1"
         id="stop21" />
    </linearGradient>
    <linearGradient
       id="linearGradient4"
       inkscape:collect="always">
      <stop
         style="stop-color:#ddeeff;stop-opacity:1;"
         offset="0"
         id="stop4" />
      <stop
         style="stop-color:#99ccff;stop-opacity:1;"
         offset="0.50113881"
         id="stop6" />
      <stop
         style="stop-color:#6699dd;stop-opacity:1;"
         offset="1"
         id="stop5" />
    </linearGradient>
    <linearGradient
       inkscape:collect="always"
       xlink:href="#linearGradient4"
       id="linearGradient5"
       x1="309.05444"
       y1="257.89761"
       x2="485.86945"
       y2="257.89761"
       gradientUnits="userSpaceOnUse"
       gradientTransform="matrix(1.1561415,0,0,1.1540018,-194.11173,-700.11907)" />
    <linearGradient
       inkscape:collect="always"
       xlink:href="#linearGradient45"
       id="linearGradient21"
       x1="452.02621"
       y1="217.48816"
       x2="452.77805"
       y2="297.47217"
       gradientUnits="userSpaceOnUse"
       gradientTransform="translate(-1.8748659,10.192743)" />
    <linearGradient
       inkscape:collect="always"
       xlink:href="#linearGradient20"
       id="linearGradient22"
       gradientUnits="userSpaceOnUse"
       gradientTransform="translate(-96.531948,10.192729)"
       x1="452.02621"
       y1="217.48816"
       x2="452.77805"
       y2="297.47217" />
    <linearGradient
       inkscape:collect="always"
       xlink:href="#linearGradient25"
       id="linearGradient23"
       gradientUnits="userSpaceOnUse"
       gradientTransform="translate(-49.13665,-37.448067)"
       x1="452.02621"
       y1="217.48816"
       x2="452.77805"
       y2="297.47217" />
  </defs>
  <sodipodi:namedview
     id="namedview1"
     pagecolor="#ffffff"
     bordercolor="#000000"
     borderopacity="0.25"
     inkscape:showpageshadow="2"
     inkscape:pageopacity="0.0"
     inkscape:pagecheckerboard="0"
     inkscape:deskcolor="#d1d1d1"
     showgrid="false"
     inkscape:zoom="3.3174172"
     inkscape:cx="99.324257"
     inkscape:cy="122.98724"
     inkscape:window-width="1920"
     inkscape:window-height="1147"
     inkscape:window-x="0"
     inkscape:window-y="0"
     inkscape:window-maximized="1"
     inkscape:current-layer="layer3">
    <inkscape:page
       x="0"
       y="0"
       inkscape:label="1"
       id="page1"
       width="248"
       height="248.00002"
       margin="0"
       bleed="0"
       inkscape:export-filename="supersakura.png"
       inkscape:export-xdpi="96"
       inkscape:export-ydpi="96" />
  </sodipodi:namedview>
  <g
     inkscape:groupmode="layer"
     id="layer2"
     inkscape:label="Background"
     transform="translate(-278.67795,-142.59304)">
    <ellipse
       style="fill:url(#linearGradient5);stroke:none;stroke-width:18.4814;stroke-dasharray:none;stroke-opacity:1"
       id="path4"
       cx="265.41052"
       cy="-402.50479"
       rx="102.21158"
       ry="102.04609"
       transform="rotate(90.003311)"
       inkscape:label="blue sky" />
  </g>
  <g
     inkscape:groupmode="layer"
     id="layer1"
     inkscape:label="Border Ball"
     transform="translate(-278.67795,-142.59304)">
    <ellipse
       style="fill:none;stroke:#00000f;stroke-width:16;stroke-dasharray:none;stroke-opacity:1"
       id="path3-3"
       cx="402.62561"
       cy="272.24255"
       rx="108.86521"
       ry="108.97343"
       inkscape:label="border shadow" />
    <ellipse
       style="fill:none;stroke:#7766ee;stroke-width:16;stroke-dasharray:none;stroke-opacity:1"
       id="path3"
       cx="402.62561"
       cy="264.68753"
       rx="108.86521"
       ry="108.97343"
       inkscape:label="border ball" />
  </g>
  <g
     inkscape:groupmode="layer"
     id="layer3"
     inkscape:label="Sakura"
     transform="translate(-278.67795,-142.59304)">
    <ellipse
       style="fill:#000000;fill-opacity:0.411765;stroke:none;stroke-width:6.92883;stroke-dasharray:none;stroke-opacity:1"
       id="path20-4-5-4-7"
       cx="402.94968"
       cy="351.47583"
       rx="41.321205"
       ry="7.5696859"
       inkscape:label="all shade" />
    <path
       d="m 422.34028,351.61398 h -38.81445 a 19.442263,3.7888758 0 0 0 19.4082,3.68679 19.442263,3.7888758 0 0 0 19.40625,-3.68679 z"
       style="stroke-width:3.36252"
       id="path43"
       inkscape:label="trunk shade" />
    <path
       d="m 383.56492,243.84939 c 4.44255,5.46195 7.75,27.40449 7.75,53.83789 0,26.59529 -3.34637,48.66172 -7.83007,53.95312 h 38.90429 c -4.45652,-5.40438 -7.77539,-27.38854 -7.77539,-53.87695 0,-26.54029 3.33107,-48.56433 7.80078,-53.91406 z"
       style="fill:#552211;fill-opacity:1;stroke-width:16"
       id="path19"
       inkscape:label="trunk" />
    <ellipse
       style="fill:#000000;fill-opacity:1;stroke:none;stroke-width:16;stroke-dasharray:none;stroke-opacity:1"
       id="path20-4-5-4"
       cx="450.21155"
       cy="271.66373"
       rx="41.321205"
       ry="40.364597"
       inkscape:label="right shade" />
    <ellipse
       style="fill:#000000;fill-opacity:1;stroke:none;stroke-width:16;stroke-dasharray:none;stroke-opacity:1"
       id="path20-4-5-7"
       cx="355.55438"
       cy="271.66373"
       rx="41.321205"
       ry="40.364597"
       inkscape:label="left shade" />
    <ellipse
       style="fill:url(#linearGradient21);stroke:none;stroke-width:16;stroke-dasharray:none;stroke-opacity:1"
       id="path20"
       cx="450.21155"
       cy="268.06729"
       rx="41.321205"
       ry="40.364597"
       inkscape:label="right blob" />
    <ellipse
       style="fill:url(#linearGradient22);stroke:none;stroke-width:16;stroke-dasharray:none;stroke-opacity:1"
       id="path20-2"
       cx="355.55438"
       cy="268.06729"
       rx="41.321205"
       ry="40.364597"
       inkscape:label="left blob" />
    <ellipse
       style="fill:#000000;fill-opacity:0.411765;stroke:none;stroke-width:16;stroke-dasharray:none;stroke-opacity:1"
       id="path20-4-5"
       cx="402.94968"
       cy="224.28421"
       rx="41.321205"
       ry="40.364597"
       inkscape:label="top shade" />
    <ellipse
       style="fill:url(#linearGradient23);stroke:none;stroke-width:16;stroke-dasharray:none;stroke-opacity:1"
       id="path20-4"
       cx="402.94968"
       cy="220.42653"
       rx="41.321205"
       ry="40.364597"
       inkscape:label="top blob" />
  </g>
</svg>
